{
  "name": "average-wage",
  "title": "Average wage",
  "resources": [
    {
      "path": "monthlywage.csv",
      "pathType": "local",
      "name": "monthlywage",
      "format": "csv",
      "mediatype": "text/csv",
      "encoding": "ISO-8859-1",
      "dialect": {
        "delimiter": ",",
        "quoteChar": "\""
      },
      "schema": {
        "fields": [
          {
            "name": "Country",
            "type": "string",
            "format": "default"
          },
          {
            "name": "Average Monthly Wage 2015 in $",
            "type": "integer",
            "format": "default"
          }
        ],
        "missingValues": [
          ""
        ]
      }
    },
    {
      "path": "yearlywage.csv",
      "pathType": "local",
      "name": "yearlywage",
      "format": "csv",
      "mediatype": "text/csv",
      "encoding": "ISO-8859-1",
      "dialect": {
        "delimiter": ",",
        "quoteChar": "\""
      },
      "schema": {
        "fields": [
          {
            "name": "Country",
            "type": "string",
            "format": "default"
          },
          {
            "name": "2000",
            "type": "integer",
            "format": "default"
          },
          {
            "name": "2005",
            "type": "integer",
            "format": "default"
          },
          {
            "name": "2010",
            "type": "integer",
            "format": "default"
          },
          {
            "name": "2011",
            "type": "integer",
            "format": "default"
          },
          {
            "name": "2012",
            "type": "integer",
            "format": "default"
          },
          {
            "name": "2013",
            "type": "integer",
            "format": "default"
          },
          {
            "name": "2014",
            "type": "integer",
            "format": "default"
          },
          {
            "name": "2015",
            "type": "integer",
            "format": "default"
          },
          {
            "name": "2016",
            "type": "integer",
            "format": "default"
          },
          {
            "name": "2017",
            "type": "integer",
            "format": "default"
          }
        ],
        "missingValues": [
          ""
        ]
      }
    },
    {
      "path": "process.py",
      "pathType": "local",
      "name": "process",
      "format": "py",
      "encoding": "ISO-8859-1"
    }
  ],
  "licenses": [
    {
      "name": "ODC-PDDL",
      "path": "http://opendatacommons.org/licenses/pddl/",
      "title": "Open Data Commons Public Domain Dedication and License"
    }
  ],"views": [
    {
      "name": "Average Monthly Wage Per Country",
      "title": "Average Monthly Wage Per Country",
      "resources": ["monthlywage"],
      "specType": "simple",
      "spec": {
        "type": "line",
        "group": "Country",
        "series": [ "Average Monthly Wage 2015 in $" ]
    }
  },{
      "name": "Historical Average Yearly Wage Per Country",
      "title": "Historical Average Yearly Wage Per Country",
      "resources": ["yearlywage"],
      "specType": "simple",
      "spec": {
        "type": "line",
        "group": "Country",
        "series": [ "2000","2005","2010","2011","2012","2013","2014","2015","2016","2017"]
  }
}
  ]
}